\relax 
\@writefile{lof}{\contentsline {figure}{\numberline {1}{\ignorespaces Density plot of 100,000 samples using the MALA sample defined by (3). The left-hand plot shows the density histogram and the left hand plot shows a scatter of the samples.\relax }}{1}}
\providecommand*\caption@xref[2]{\@setref\relax\@undefined{#1}}
\newlabel{densityMALA}{{1}{1}}
\@writefile{lof}{\contentsline {figure}{\numberline {2}{\ignorespaces Plots of the effective sample sizes for the $x$- and $y$-variates of the chain for 10,000 samples, with a discarded burn-in phase of 1000 samples.\relax }}{2}}
\newlabel{essMALA}{{2}{2}}
\@writefile{lof}{\contentsline {figure}{\numberline {3}{\ignorespaces Results of a $\delta $-dependency ($\delta $ plotted along the $x$-axis) test for the proposal (3). 10 runs of the same algorithm which plots the acceptance rate for increasing values of $\delta $ with 1000 timesteps. Note that the $x$-axis is in a log with base $\sqrt  {10}$ scale, i.e. $x=1$ corresponds to a $\delta $ value of $10^{1/2}$.\relax }}{2}}
\newlabel{deltatestmala}{{3}{2}}
\@writefile{lof}{\contentsline {figure}{\numberline {4}{\ignorespaces Plot of the estimator $\mathaccentV {hat}05E{I}$, with 95$\%$ confidence intervals, using the MALA sampler (3) to produce the samples. The code used a burn-in phase of 10,000 samples.\relax }}{3}}
\newlabel{estMALA}{{4}{3}}
\@writefile{lof}{\contentsline {figure}{\numberline {5}{\ignorespaces Density plot of 100,000 samples using the MH sampler defined by (4). The left-hand plot shows the density histogram and the left hand plot shows a scatter of the samples.\relax }}{4}}
\newlabel{densityYmh}{{5}{4}}
\@writefile{lof}{\contentsline {figure}{\numberline {6}{\ignorespaces Results of a $\delta $-dependency test ($\delta $ plotted along the $x$-axis) for the proposal (4). 10 runs of the same algorithm which plots the acceptance rate for increasing values of $\delta $ with 100 timesteps.\relax }}{4}}
\newlabel{deltatestYmh}{{6}{4}}
\@writefile{lof}{\contentsline {figure}{\numberline {7}{\ignorespaces Semi-log plot of the estimator $\mathaccentV {hat}05E{I}$, with $95\%$ confidence intervals using the MALA sampler (4) to produce $10^{6}$ samples. The code used a burn-in phase of 10,000 samples.\relax }}{5}}
\newlabel{estYmh1}{{7}{5}}
\@writefile{lof}{\contentsline {figure}{\numberline {8}{\ignorespaces Scatter plot of 100,000 samples using proposal (3) with $b=0.005$.\relax }}{5}}
\newlabel{densityb005}{{8}{5}}
\@writefile{lof}{\contentsline {figure}{\numberline {9}{\ignorespaces Histogram plots of the global spin for $K=10,50,100$ and $150$ for $10^{6}$ samples with $J=0.5$.\relax }}{6}}
\newlabel{histJ05}{{9}{6}}
\@writefile{lof}{\contentsline {figure}{\numberline {10}{\ignorespaces Plot of the effective sample size against $K=10,50,100$ and $150$ for $10^{6}$ samples with $J=0.5$.\relax }}{7}}
\newlabel{ESSJ05}{{10}{7}}
\@writefile{lof}{\contentsline {figure}{\numberline {11}{\ignorespaces Histogram plots of the global spin for $K=10,50,100$ and $150$ for $10^{6}$ samples with $J=1.25$.\relax }}{7}}
\newlabel{histJ05}{{11}{7}}
\@writefile{lof}{\contentsline {figure}{\numberline {12}{\ignorespaces Plot of the effective sample size against $K=10,50,100$ and $150$ for $10^{6}$ samples with $J=1.25$.\relax }}{8}}
\newlabel{ESSJ05}{{12}{8}}
